/Users/adia/Documents/workspace/mw-grid/mw-grid/core/core-labs/core-labs-sentiment-engine/src/test/java/com/nlp/sentiment/enhance/EnhancementMainTest.java
/Users/adia/Documents/workspace/mw-grid/mw-grid/core/core-labs/core-labs-sentiment-engine/src/test/java/com/nlp/sentiment/lsi/SimpleSVDTest.java
/Users/adia/Documents/workspace/mw-grid/mw-grid/core/core-labs/core-labs-sentiment-engine/src/test/java/com/mwired/grid/core/labs/sentiment/engine/AppTest.java
